{
  "version": "5",
  "dialect": "sqlite",
  "id": "9b305fa1-4ecb-44df-b308-78d6f48fa079",
  "prevId": "17d29e14-4e2c-4a84-9789-3a9b0bfe6d6c",
  "tables": {},
  "enums": {},
  "_meta": {
    "schemas": {},
    "tables": {},
    "columns": {}
  }
}